<?xml version="1.0" encoding="UTF-8" standalone="no"?>
<!-- Created with Inkscape (http://www.inkscape.org/) -->

<svg
   xmlns:dc="http://purl.org/dc/elements/1.1/"
   xmlns:cc="http://creativecommons.org/ns#"
   xmlns:rdf="http://www.w3.org/1999/02/22-rdf-syntax-ns#"
   xmlns:svg="http://www.w3.org/2000/svg"
   xmlns="http://www.w3.org/2000/svg"
   xmlns:xlink="http://www.w3.org/1999/xlink"
   xmlns:sodipodi="http://sodipodi.sourceforge.net/DTD/sodipodi-0.dtd"
   xmlns:inkscape="http://www.inkscape.org/namespaces/inkscape"
   id="svg2"
   inkscape:export-ydpi="180"
   inkscape:export-filename="C:\Users\Lzu\Desktop\button3x2.png"
   viewBox="0 0 71.514329 31.45696"
   sodipodi:docname="AllOnOff.svg"
   inkscape:export-xdpi="180"
   version="1.1"
   inkscape:version="0.92.2 (5c3e80d, 2017-08-06)"
   inkscape:label="Pozadí"
   width="71.514328"
   height="31.456961">
  <defs
     id="defs3">
    <linearGradient
       id="linearGradient3760"
       inkscape:collect="always">
      <stop
         id="stop3762"
         style="stop-color:#cccccc"
         offset="0" />
      <stop
         id="stop3764"
         style="stop-color:#cccccc;stop-opacity:0"
         offset="1" />
    </linearGradient>
    <filter
       id="filter3892"
       height="3.2860999"
       width="1.0647"
       y="-1.1431"
       x="-0.032350998"
       inkscape:collect="always"
       style="color-interpolation-filters:sRGB">
      <feGaussianBlur
         id="feGaussianBlur3894"
         stdDeviation="1.0103417"
         inkscape:collect="always" />
    </filter>
    <linearGradient
       id="linearGradient3980"
       y2="21.5"
       xlink:href="#linearGradient3760"
       gradientUnits="userSpaceOnUse"
       x2="49.5"
       gradientTransform="matrix(0.4186,0,0,0.96154,50.945,1021.6)"
       y1="42"
       x1="50"
       inkscape:collect="always" />
    <filter
       id="filter4010"
       height="1.5695"
       width="1.204"
       y="-0.28476"
       x="-0.102"
       inkscape:collect="always"
       style="color-interpolation-filters:sRGB">
      <feGaussianBlur
         id="feGaussianBlur4012"
         stdDeviation="2.8475891"
         inkscape:collect="always" />
    </filter>
  </defs>
  <sodipodi:namedview
     id="base"
     fit-margin-left="0"
     inkscape:zoom="3.9195477"
     borderopacity="1.0"
     inkscape:current-layer="layer1"
     inkscape:cx="169.92139"
     inkscape:cy="-2.7977827"
     inkscape:window-maximized="1"
     showgrid="false"
     fit-margin-right="0"
     inkscape:guide-bbox="true"
     showguides="true"
     bordercolor="#666666"
     inkscape:window-x="0"
     inkscape:window-y="33"
     fit-margin-bottom="0"
     inkscape:window-width="1920"
     inkscape:pageopacity="1"
     inkscape:pageshadow="2"
     pagecolor="#ffffff"
     inkscape:document-units="px"
     inkscape:window-height="1011"
     fit-margin-top="0">
    <inkscape:grid
       id="grid2984"
       originy="-988.3817"
       enabled="true"
       originx="92.002721"
       visible="true"
       snapvisiblegridlinesonly="true"
       type="xygrid"
       empspacing="5"
       spacingx="1"
       spacingy="1" />
  </sodipodi:namedview>
  <g
     id="layer1"
     inkscape:label="Vrstva 1"
     inkscape:groupmode="layer"
     transform="translate(91.00272,-1000.5339)">
    <g
       id="g72"
       transform="translate(-112.00272,-25.513148)">
      <rect
         x="21"
         y="1026.4"
         width="71"
         height="31.104"
         ry="5.1841002"
         rx="5"
         style="fill:#666666;fill-rule:evenodd"
         id="rect3960" />
      <rect
         x="21"
         y="1026.4"
         width="71"
         height="30"
         ry="5"
         rx="5"
         style="fill:#b3b3b3;fill-rule:evenodd"
         id="rect3962" />
      <rect
         x="22"
         y="1027.4"
         width="69"
         height="28"
         ry="4"
         rx="4"
         style="fill:#112b00;fill-rule:evenodd"
         id="rect3964" />
      <rect
         x="101"
         y="1020.4"
         width="67"
         height="24"
         ry="3.4286001"
         rx="3.8841"
         transform="matrix(0.87756,0,0,0.81507,-60.913,199.92)"
         style="opacity:0.55513;fill:#008000;fill-rule:evenodd;filter:url(#filter4010)"
         id="rect3988" />
      <rect
         x="50.75"
         y="1026.4"
         width="40.125"
         height="30"
         ry="5"
         rx="5.0156002"
         style="fill:#112c00;fill-rule:evenodd"
         id="rect4014" />
      <rect
         x="51.875"
         y="1026.4"
         width="40"
         height="30"
         ry="5"
         rx="5"
         style="fill:#b3b3b3;fill-rule:evenodd"
         id="rect3984" />
      <rect
         x="52.875"
         y="1027.4"
         width="38"
         height="28"
         ry="4"
         rx="4"
         style="fill:#ffffff;fill-rule:evenodd"
         id="rect3986" />
      <rect
         x="53.875"
         y="1028.4"
         width="36"
         height="25"
         ry="3.8462"
         rx="3"
         style="fill:url(#linearGradient3980);fill-rule:evenodd"
         id="rect3966" />
      <rect
         x="12.374"
         y="68.333"
         width="74.953003"
         height="2.1213"
         ry="0.26357001"
         rx="2.5953"
         transform="matrix(0.42057,0,0,0.34785,51.147,1029)"
         style="opacity:0.15589001;fill:#666666;fill-rule:evenodd;filter:url(#filter3892)"
         id="rect3976" />
      <rect
         x="12.374"
         y="68.333"
         width="74.953003"
         height="2.1213"
         transform="matrix(0.40723,0,0,0.34785,51.312,1005.3)"
         rx="2.5953"
         style="opacity:0.15589001;fill:#666666;fill-rule:evenodd;filter:url(#filter3892)"
         ry="0.26357001"
         id="rect3978" />
      <path
         inkscape:connector-curvature="0"
         style="opacity:0.8;fill:#00d400"
         d="m 31.315,1041.8 c -1e-6,-0.8021 0.11995,-1.4753 0.35986,-2.0195 0.17904,-0.4011 0.42342,-0.7609 0.73315,-1.0796 0.30973,-0.3187 0.649,-0.555 1.0178,-0.709 0.49056,-0.2077 1.0563,-0.3115 1.6973,-0.3115 1.1602,0 2.0885,0.3598 2.7849,1.0796 0.69644,0.7197 1.0447,1.7205 1.0447,3.0024 -8e-6,1.2712 -0.34555,2.2657 -1.0366,2.9836 -0.69109,0.718 -1.6149,1.0769 -2.7715,1.0769 -1.1709,0 -2.1019,-0.3571 -2.793,-1.0715 -0.69108,-0.7143 -1.0366,-1.6981 -1.0366,-2.9514 z m 1.6382,-0.054 c -2e-6,0.8916 0.20589,1.5675 0.61768,2.0276 0.41178,0.4601 0.93457,0.6902 1.5684,0.6902 0.63378,0 1.1539,-0.2283 1.5603,-0.6849 0.40641,-0.4565 0.60961,-1.1413 0.60962,-2.0544 -6e-6,-0.9023 -0.19784,-1.5755 -0.5935,-2.0195 -0.39568,-0.444 -0.92115,-0.666 -1.5764,-0.666 -0.65528,0 -1.1834,0.2247 -1.5845,0.674 -0.40104,0.4494 -0.60156,1.1271 -0.60156,2.033 z"
         id="path3294" />
      <path
         inkscape:connector-curvature="0"
         style="opacity:0.8;fill:#00d400"
         d="m 40.204,1045.7 v -7.8741 h 1.5469 l 3.2227,5.2583 v -5.2583 h 1.4771 v 7.8741 h -1.5952 l -3.1743,-5.1348 v 5.1348 z"
         id="path3296" />
    </g>
  </g>
  <metadata
     id="metadata177">
    <rdf:RDF>
      <cc:Work>
        <dc:format>image/svg+xml</dc:format>
        <dc:type
           rdf:resource="http://purl.org/dc/dcmitype/StillImage" />
        <cc:license
           rdf:resource="http://creativecommons.org/publicdomain/zero/1.0/" />
        <dc:publisher>
          <cc:Agent
             rdf:about="http://openclipart.org/">
            <dc:title>Openclipart</dc:title>
          </cc:Agent>
        </dc:publisher>
        <dc:title></dc:title>
      </cc:Work>
      <cc:License
         rdf:about="http://creativecommons.org/publicdomain/zero/1.0/">
        <cc:permits
           rdf:resource="http://creativecommons.org/ns#Reproduction" />
        <cc:permits
           rdf:resource="http://creativecommons.org/ns#Distribution" />
        <cc:permits
           rdf:resource="http://creativecommons.org/ns#DerivativeWorks" />
      </cc:License>
    </rdf:RDF>
  </metadata>
</svg>
